Tuning Mixtures and Penalties
…
lasso_5 <- linear_reg(penalty = 0.5, mixture = 1) %>%
  set_engine("glmnet") %>%
  set_mode("regression")
```

---
## Penalty Parameter

We found that larger penalty parameter led to more coefficients of 0  (i.e., excluded variables):

.pull-left[

```
## # A tibble: 63 × 3
##    term        estimate penalty
##    <chr>          <dbl>   <dbl>
##  1 (Intercept) 3.81         0.1
##  2 Creative    0.0252       0.1
##  3 Energetic   0.000327     0.1
##  4 Tingly      0            0.1
##  5 Euphoric    0.115        0.1
##  6 Relaxed     0.188        0.1
##  7 Aroused     0            0.1
##  8 Happy       0.268        0.1
##  9 Uplifted    0.108        0.1
## 10 Hungry      0            0.1
## # … with 53 more rows
```

]

.pull-left[

```
## # A tibble: 63 × 3
##    term        estimate penalty
##    <chr>          <dbl>   <dbl>
##  1 (Intercept)     4.32     0.5
##  2 Creative        0        0.5
##  3 Energetic       0        0.5
##  4 Tingly          0        0.5
##  5 Euphoric        0        0.5
##  6 Relaxed         0        0.5
##  7 Aroused         0        0.5
##  8 Happy           0        0.5
##  9 Uplifted        0        0.5
## 10 Hungry          0        0.5
## # … with 53 more rows
```
…
